Statistiche Descrittive
…
tweet.text$quotidiano<-as.factor(tweet.text$quotidiano)

Frequenze assolute delle parole presenti nei tweet

tidy.tweets <- tweet.text %>%
  unnest_tokens(word, text)

#frequenze totali

tidy.tweets %>%                       
  count(as.character(word), sort = TRUE)

## # A tibble: 16,350 x 2
##    `as.character(word)`     n
##    <chr>                <int>
##  1 news                   972
##  2 aggiornata             966
##  3 non                    940
##  4 oggi                   544
##  5 pi                    475
##  6 anni                   466
##  7 italia                 385
##  8 rep                    360
##  9 nuovo                  267
## 10 dopo                   244
## # ... with 16,340 more rows
…
#il Corriere
tidy.corriere<-tweet.text[tweet.text$quotidiano=="ilCorriere",] %>%
  unnest_tokens(word, text)

#La Stampa
tidy.lastampa<-tweet.text[tweet.text$quotidiano=="LaStampa",] %>%
  unnest_tokens(word, text)

tidy.repubblica %>%
  count(as.character(word), sort = TRUE)

## # A tibble: 6,855 x 2
##    `as.character(word)`     n
##    <chr>                <int>
##  1 news                   966
##  2 aggiornata             965
##  3 oggi                   364
##  4 rep                    360
##  5 non                    312
##  6 repubblica             197
##  7 pi                    185
##  8 urlw                   179
##  9 anni                   138
## 10 italia                 134
## # ... with 6,845 more rows

tidy.corriere %>%                       
  count(as.character(word), sort = TRUE)

## # A tibble: 6,340 x 2
##    `as.character(word)`     n
##    <chr>                <int>
##  1 non                    332
##  2 anni                   155
##  3 pi                    129
##  4 italia                 105
##  5 ecco                    99
##  6 nuovo                   92
##  7 renzi                   83
##  8 oggi                    77
##  9 corriere                74
## 10 diretta                 74
## # ... with 6,330 more rows

tidy.lastampa %>%                       
  count(as.character(word), sort = TRUE)

## # A tibble: 10,656 x 2
##    `as.character(word)`     n
##    <chr>                <int>
##  1 non                    296
##  2 anni                   173
##  3 pi                    161
##  4 italia                 146
##  5 nuovo                  115
##  6 oggi                   103
##  7 dopo                   100
##  8 prima                   93
##  9 due                     92
## 10 presidente              79
## # ... with 10,646 more rows
…
bigrams_separated <- tweet_bigrams %>%
  separate(bigram, c("word1", "word2"), sep = " ")

bigram_counts <- bigrams_separated %>% 
  count(word1, word2, sort = TRUE)

#la repubblica

bigrams_separated_rep <- tweet_bigrams %>%
  filter(quotidiano=="laRepubblica")%>%
  count(bigram, sort = TRUE)

bigrams_separated_rep

## # A tibble: 14,196 x 2
##    bigram                            n
##    <chr>                         <int>
##  1 news aggiornata                 955
##  2 oggi rep                        327
##  3 for future                       80
##  4 fridays for                      71
##  5 citt italiane                   40
##  6 hong kong                        39
##  7 ancora edicola                   38
##  8 fridayforfuture climatestrike    38
##  9 speciale terra                   37
## 10 giusta prezzo                    34
## # ... with 14,186 more rows

#il corriere

bigrams_separated_corr <- tweet_bigrams %>%
  filter(quotidiano=="ilCorriere")%>%
  count(bigram, sort = TRUE)

bigrams_separated_corr

## # A tibble: 11,683 x 2
##    bigram           n
##    <chr>        <int>
##  1 italia viva     22
##  2 fine vita       20
##  3 hong kong       20
##  4 san siro        19
##  5 emma marrone    14
##  6 mila euro       14
##  7 nadia toffa     14
##  8 milan inter     13
##  9 nuovo numero    13
## 10 nuovo stadio    13
## # ... with 11,673 more rows

#La Stampa

bigrams_separated_las <- tweet_bigrams %>%
  filter(quotidiano=="LaStampa")%>%
  count(bigram, sort = TRUE)

bigrams_separated_las

## # A tibble: 23,745 x 2
##    bigram                      n
##    <chr>                   <int>
##  1 nuovo tuttolibri           41
##  2 recensioni nuovo           32
##  3 oggi settembre             29
##  4 prima pagina               20
##  5 buongiorno ecco            18
##  6 ecco prima                 18
##  7 pagina oggi                18
##  8 penna noemi                18
##  9 calcio tv                  16
## 10 settembre aggiornamenti    16
## # ... with 23,735 more rows
…
